0.0001        10.077
0.00011296    10.077
0.00013074    10.077
0.00015317    10.629
0.00019073    9.056
0.00027156    7.716
0.00033814    5.909
0.00043144    5.602
0.00053723    5.035
0.00068545    3.655
0.0008229    3.114
0.0010247    2.032
0.0012452    1.5562
0.0015695    1.1297
0.0019073    0.7371
0.002262    0.481
0.0026181    0.3683
0.0029573    0.2403
0.0035503    0.14093
0.0039617    0.08718
0.0045854    0.04356
0.005243    0.02296
0.0057097    0.014201
0.0061427    0.007485
0.0069386    0.00374
0.0074648    0.0018686
0.00833    0.0008392
0.00864    0.0003044
0.009409    5.23e-05
0.01    1.1126e-05
