Wavelength (nm),% Transmission
2600,58.83042145
2599,58.71677399
2598,58.65870285
2597,58.48212433
2596,58.29938126
2595,58.21140289
2594,58.0458107
2593,57.91397095
2592,57.7598381
2591,57.61639023
2590,57.37692642
2589,57.22343445
2588,57.05428696
2587,56.83482742
2586,56.62586212
2585,56.48488235
2584,56.27222061
2583,56.0921669
2582,55.94894409
2581,55.87071228
2580,55.70396042
2579,55.63273621
2578,55.55581284
2577,55.47050858
2576,55.49025726
2575,55.37892532
2574,55.32410049
2573,55.40194702
2572,55.38542938
2571,55.31895828
2570,55.2633934
2569,55.25913239
2568,55.25806427
2567,55.14184189
2566,55.10664749
2565,55.02064133
2564,54.96861267
2563,54.95523071
2562,55.0423317
2561,54.91926575
2560,54.87847137
2559,54.95077896
2558,54.89248657
2557,54.88117981
2556,54.82803726
2555,54.8449707
2554,54.87543488
2553,54.89547348
2552,54.87274933
2551,54.84604645
2550,54.90507507
2549,54.99198532
2548,54.96837616
2547,54.96851349
2546,55.04149628
2545,54.98651886
2544,55.00405502
2543,54.98173904
2542,55.01336288
2541,54.95966721
2540,54.9234314
2539,54.80568314
2538,54.78153992
2537,54.63505554
2536,54.62723923
2535,54.5161972
2534,54.38667679
2533,54.16775894
2532,54.1266098
2531,53.92054367
2530,53.80783844
2529,53.59614563
2528,53.35430527
2527,53.20222855
2526,53.01211548
2525,52.82812881
2524,52.6036911
2523,52.46459961
2522,52.33744431
2521,52.09236908
2520,51.92975998
2519,51.80992508
2518,51.61929321
2517,51.48187256
2516,51.38656998
2515,51.24220276
2514,51.18420792
2513,51.14619064
2512,51.21011734
2511,51.15383148
2510,51.18597794
2509,51.17462158
2508,51.29200363
2507,51.2921524
2506,51.41321945
2505,51.56687927
2504,51.5960083
2503,51.71331787
2502,51.87672424
2501,51.90956497
2500,52.03931427
2499,52.19565201
2498,52.33599091
2497,52.34197998
2496,52.42336273
2495,52.52807617
2494,52.58359909
2493,52.66237259
2492,52.78310776
2491,52.77504349
2490,52.84702682
2489,52.93432617
2488,52.93194199
2487,52.98812485
2486,53.03593826
2485,53.03435516
2484,53.04443359
2483,53.0693779
2482,53.02080536
2481,52.92446518
2480,52.73771286
2479,52.55265045
2478,52.42234039
2477,52.03151703
2476,51.78758621
2475,51.38038254
2474,51.00904846
2473,50.60036087
2472,50.16898346
2471,49.7378006
2470,49.24297714
2469,48.77593994
2468,48.26584625
2467,47.73464966
2466,47.44524765
2465,47.05168152
2464,46.78800201
2463,46.59437561
2462,46.4605217
2461,46.4639473
2460,46.61499786
2459,46.82369614
2458,47.05422211
2457,47.4024086
2456,47.79149246
2455,48.21660614
2454,48.73867416
2453,49.15231323
2452,49.56754303
2451,50.01197433
2450,50.57063675
2449,51.0151329
2448,51.52626801
2447,52.10688019
2446,52.60555649
2445,53.11095047
2444,53.55844498
2443,54.12413406
2442,54.50776291
2441,55.01961517
2440,55.38114166
2439,55.699646
2438,56.05152893
2437,56.2841835
2436,56.46064377
2435,56.67195129
2434,56.87051392
2433,57.03316879
2432,57.10081482
2431,57.33565521
2430,57.29384995
2429,57.45795822
2428,57.50765228
2427,57.59914017
2426,57.63881302
2425,57.67350006
2424,57.62851715
2423,57.69122314
2422,57.63228607
2421,57.62340546
2420,57.51769638
2419,57.58457184
2418,57.43136597
2417,57.32930756
2416,57.36149597
2415,57.20748901
2414,56.97317886
2413,56.95763397
2412,56.70687485
2411,56.52613068
2410,56.34119034
2409,56.11812973
2408,55.84429932
2407,55.6769371
2406,55.54737854
2405,55.27643585
2404,55.183918
2403,55.08833694
2402,54.99622345
2401,55.03787994
2400,55.09007645
2399,55.12787247
2398,55.18431091
2397,55.3532486
2396,55.37611389
2395,55.53063202
2394,55.61830521
2393,55.74788284
2392,55.80275726
2391,55.92100525
2390,56.05552673
2389,56.09593201
2388,56.20845413
2387,56.30783463
2386,56.39695358
2385,56.47364426
2384,56.61606216
2383,56.72286224
2382,56.77747726
2381,56.85041046
2380,56.92419434
2379,56.97395325
2378,57.0157814
2377,57.00738907
2376,56.94701004
2375,56.89385986
2374,56.79564667
2373,56.79858398
2372,56.75087738
2371,56.73709488
2370,56.74247742
2369,56.64605331
2368,56.46484375
2367,56.5594368
2366,56.44818115
2365,56.50842667
2364,56.51303482
2363,56.47998428
2362,56.5629425
2361,56.64850616
2360,56.71172714
2359,56.68467712
2358,56.80249786
2357,56.75678253
2356,56.82181168
2355,56.76574707
2354,56.57789612
2353,56.60466003
2352,56.53775406
2351,56.47672272
2350,56.5316391
2349,56.60650253
2348,56.50651932
2347,56.62578964
2346,56.64502335
2345,56.57499313
2344,56.67384338
2343,56.70132065
2342,56.70275879
2341,56.74044037
2340,56.6775322
2339,56.6461792
2338,56.5461235
2337,56.47628403
2336,56.30263138
2335,56.15083694
2334,55.90202332
2333,55.67218018
2332,55.36915207
2331,55.17275238
2330,54.93857956
2329,54.65613174
2328,54.40881729
2327,54.06512451
2326,53.6651535
2325,53.34275818
2324,52.93263626
2323,52.47338486
2322,52.11053467
2321,51.58468628
2320,51.13800049
2319,50.62272644
2318,50.15781021
2317,49.86804581
2316,49.61554337
2315,49.47563934
2314,49.41664505
2313,49.46652603
2312,49.60903931
2311,49.75392151
2310,49.90081024
2309,50.0496521
2308,50.23831558
2307,50.43001175
2306,50.48006821
2305,50.6014595
2304,50.74517059
2303,50.92341995
2302,50.96155548
2301,51.12068176
2300,51.20926666
2299,51.36400986
2298,51.60644531
2297,51.73696899
2296,51.9139061
2295,52.20726776
2294,52.41943741
2293,52.60639191
2292,52.85293961
2291,53.05773544
2290,53.35917664
2289,53.55531693
2288,53.7166481
2287,53.90787125
2286,54.17355728
2285,54.34370804
2284,54.64492416
2283,54.82835007
2282,54.97829437
2281,55.09040451
2280,55.26831055
2279,55.44308472
2278,55.51848602
2277,55.6526413
2276,55.79621887
2275,55.92404175
2274,56.11805725
2273,56.44493866
2272,56.72706985
2271,57.22317123
2270,57.62428665
2269,58.13484192
2268,58.65917969
2267,59.33421707
2266,59.93888474
2265,60.5269928
2264,61.06487656
2263,61.68007278
2262,62.24131012
2261,62.91803741
2260,63.46511078
2259,63.94564438
2258,64.51150513
2257,65.00752258
2256,65.48601532
2255,66.03549194
2254,66.42463684
2253,66.94494629
2252,67.39609528
2251,67.72622681
2250,68.15377808
2249,68.51727295
2248,68.95121765
2247,69.16577911
2246,69.56420898
2245,69.72383118
2244,69.9673233
2243,70.18331146
2242,70.38248444
2241,70.47949219
2240,70.60743713
2239,70.71691132
2238,70.92111969
2237,71.02245331
2236,71.07579803
2235,71.12837219
2234,71.21831512
2233,71.24467468
2232,71.37532806
2231,71.54402161
2230,71.57846832
2229,71.61451721
2228,71.81193542
2227,72.01403046
2226,72.02322388
2225,72.13283539
2224,72.29324341
2223,72.41623688
2222,72.4160614
2221,72.37903595
2220,72.46833038
2219,72.51875305
2218,72.49506378
2217,72.45323944
2216,72.34078979
2215,72.36198425
2214,72.28627014
2213,72.22520447
2212,72.24724579
2211,72.13035583
2210,72.09493256
2209,72.0307312
2208,72.15089417
2207,72.13433838
2206,72.20667267
2205,72.25421906
2204,72.24068451
2203,72.32992554
2202,72.42182159
2201,72.45814514
2200,72.49462128
2199,72.47027588
2198,72.4826355
2197,72.58792877
2196,72.63874817
2195,72.52877808
2194,72.50212097
2193,72.54373169
2192,72.48374939
2191,72.40853119
2190,72.39853668
2189,72.47556305
2188,72.538414
2187,72.61795044
2186,72.70500946
2185,72.81402588
2184,72.92534637
2183,73.05407715
2182,73.11781311
2181,73.13546753
2180,73.21725464
2179,73.2478714
2178,73.204216
2177,73.23948669
2176,73.03591919
2175,72.94203949
2174,72.73106384
2173,72.5056076
2172,72.12259674
2171,71.72590637
2170,71.20477295
2169,70.74028015
2168,70.27339935
2167,69.86423492
2166,69.44935608
2165,69.09210968
2164,68.86530304
2163,68.83366394
2162,68.89537811
2161,69.04177856
2160,69.27485657
2159,69.59466553
2158,70.00415039
2157,70.34255981
2156,70.77201843
2155,71.23587799
2154,71.62285614
2153,71.83700562
2152,72.12994385
2151,72.36601257
2150,72.54187775
2149,72.52680969
2148,72.67690277
2147,72.59253693
2146,72.45061493
2145,72.35477448
2144,72.25076294
2143,72.04615021
2142,71.69801331
2141,71.55792999
2140,71.31229401
2139,71.09203339
2138,71.00624847
2137,70.83455658
2136,70.83873749
2135,70.86617279
2134,71.14459991
2133,71.30850983
2132,71.76070404
2131,72.04841614
2130,72.3808136
2129,72.78681183
2128,73.03905487
2127,73.26237488
2126,73.5608139
2125,73.82527924
2124,73.92295837
2123,74.04538727
2122,74.21530151
2121,74.33078003
2120,74.38892365
2119,74.35762024
2118,74.49451447
2117,74.60054779
2116,74.58950806
2115,74.6802597
2114,74.69841003
2113,74.8011322
2112,74.81972504
2111,74.8081131
2110,74.86343384
2109,74.92982483
2108,74.96527863
2107,74.99918365
2106,74.9318924
2105,75.09319305
2104,75.1548996
2103,75.13453674
2102,75.16394043
2101,75.21643829
2100,75.18162537
2099,75.18994904
2098,75.28820801
2097,75.18743896
2096,75.28727722
2095,75.34526062
2094,75.36102295
2093,75.46230316
2092,75.4509201
2091,75.47891998
2090,75.48851013
2089,75.54784393
2088,75.70407104
2087,75.67875671
2086,75.7636795
2085,75.82733917
2084,75.91178131
2083,75.96221924
2082,76.00978851
2081,76.12028503
2080,76.20323944
2079,76.24781036
2078,76.49810028
2077,76.53279114
2076,76.57262421
2075,76.75319672
2074,76.89024353
2073,77.10365295
2072,77.18080902
2071,77.19815063
2070,77.35843658
2069,77.42611694
2068,77.4994278
2067,77.72515106
2066,77.74767303
2065,78.01425171
2064,78.08900452
2063,78.14632416
2062,78.21027374
2061,78.37510681
2060,78.44602203
2059,78.55258179
2058,78.73509216
2057,78.83408356
2056,78.8451004
2055,78.97432709
2054,79.10582733
2053,79.21443939
2052,79.32164001
2051,79.47579193
2050,79.47111511
2049,79.57971954
2048,79.64041138
2047,79.83495331
2046,79.86083984
2045,79.8743515
2044,79.95760345
2043,80.03851318
2042,80.2129364
2041,80.39659882
2040,80.38311768
2039,80.47708893
2038,80.61620331
2037,80.71025848
2036,80.77510071
2035,80.80626678
2034,80.94050598
2033,81.06719208
2032,81.13780212
2031,81.22238922
2030,81.36470032
2029,81.32781219
2028,81.55091095
2027,81.56976318
2026,81.6999588
2025,81.84606171
2024,81.86634827
2023,81.92308807
2022,82.05207825
2021,82.09807587
2020,82.02902985
2019,82.31938171
2018,82.36159515
2017,82.36096954
2016,82.5298233
2015,82.61512756
2014,82.60083771
2013,82.73584747
2012,82.81369019
2011,82.97826385
2010,82.86553955
2009,83.00502014
2008,82.98591614
2007,83.1151123
2006,83.22686768
2005,83.23155212
2004,83.30175781
2003,83.38618469
2002,83.50941467
2001,83.55003357
2000,83.52429199
1999,83.55773926
1998,83.77438354
1997,83.77923584
1996,83.74681091
1995,83.77251434
1994,84.00392151
1993,83.97406006
1992,84.0365448
1991,83.93527222
1990,84.0230484
1989,84.04842377
1988,84.06378937
1987,84.05732727
1986,84.13201904
1985,84.19989014
1984,84.24812317
1983,84.21784973
1982,84.14292145
1981,84.2512207
1980,84.28185272
1979,84.2733078
1978,84.14752197
1977,84.31021118
1976,84.20372772
1975,84.40354156
1974,84.26507568
1973,84.30136108
1972,84.34547424
1971,84.36278534
1970,84.37934875
1969,84.33449554
1968,84.41288757
1967,84.33740997
1966,84.44682312
1965,84.39867401
1964,84.48868561
1963,84.43332672
1962,84.48162079
1961,84.45837402
1960,84.35476685
1959,84.46172333
1958,84.51712799
1957,84.45552063
1956,84.54728699
1955,84.50666809
1954,84.49795532
1953,84.48667908
1952,84.48332977
1951,84.59335327
1950,84.55604553
1949,84.46833801
1948,84.45329285
1947,84.55353546
1946,84.44161224
1945,84.60787201
1944,84.56856537
1943,84.5340271
1942,84.51274872
1941,84.48831177
1940,84.45176697
1939,84.51650238
1938,84.47756195
1937,84.4525528
1936,84.47853088
1935,84.41656494
1934,84.41511536
1933,84.41563416
1932,84.44624329
1931,84.50946808
1930,84.41706085
1929,84.45002747
1928,84.52631378
1927,84.52474213
1926,84.41257477
1925,84.43564606
1924,84.54183197
1923,84.53257751
1922,84.33755493
1921,84.44937134
1920,84.48717499
1919,84.52099609
1918,84.3946228
1917,84.53882599
1916,84.49459076
1915,84.48320007
1914,84.49423981
1913,84.44980621
1912,84.39566803
1911,84.67435455
1910,84.44876099
1909,84.4826355
1908,84.4746933
1907,84.46177673
1906,84.51006317
1905,84.55792236
1904,84.51313782
1903,84.54820251
1902,84.50051117
1901,84.47296906
1900,84.59406281
1899,84.47994232
1898,84.53201294
1897,84.64573669
1896,84.58657074
1895,84.63214874
1894,84.49054718
1893,84.67707825
1892,84.50996399
1891,84.66938019
1890,84.71059418
1889,84.64232635
1888,84.55473328
1887,84.58527374
1886,84.55596924
1885,84.62384796
1884,84.53741455
1883,84.69052887
1882,84.65101624
1881,84.53611755
1880,84.5484314
1879,84.56513977
1878,84.537323
1877,84.50621033
1876,84.5941391
1875,84.58275604
1874,84.46582794
1873,84.51126099
1872,84.50856781
1871,84.45755005
1870,84.54151154
1869,84.48059845
1868,84.49359894
1867,84.40643311
1866,84.53733063
1865,84.53482819
1864,84.40937042
1863,84.3957901
1862,84.38739777
1861,84.34607697
1860,84.41624451
1859,84.43167877
1858,84.45700073
1857,84.4322052
1856,84.35765839
1855,84.26569366
1854,84.3015213
1853,84.23907471
1852,84.27619171
1851,84.31446075
1850,84.17098236
1849,84.19234467
1848,84.19850922
1847,84.09713745
1846,84.13454437
1845,84.15624237
1844,84.09293365
1843,84.06803894
1842,84.14834595
1841,84.03231049
1840,84.12551117
1839,84.04117584
1838,84.05283356
1837,84.11162567
1836,83.98220062
1835,84.03136444
1834,84.07288361
1833,83.89646912
1832,83.91724396
1831,83.87213135
1830,83.98332977
1829,83.90969849
1828,84.0165329
1827,83.93911743
1826,83.85993958
1825,83.89346313
1824,83.89646149
1823,84.0058136
1822,83.81280518
1821,83.97529602
1820,83.85719299
1819,83.95891571
1818,83.83398438
1817,83.82622528
1816,83.89810944
1815,83.86297607
1814,83.7817688
1813,83.94782257
1812,83.90293884
1811,83.84561157
1810,83.95454407
1809,83.88907623
1808,83.93858337
1807,83.94324493
1806,83.96618652
1805,83.94877625
1804,83.88417816
1803,83.95370483
1802,83.95443726
1801,83.86483765
1800,83.99703217
1799,83.9214859
1798,83.97046661
1797,84.06689453
1796,83.95246887
1795,84.09356689
1794,83.94662476
1793,84.03423309
1792,83.95552063
1791,83.96274567
1790,83.93846893
1789,83.94342041
1788,83.96060944
1787,83.92477417
1786,84.01974487
1785,83.92076874
1784,83.88231659
1783,83.89883423
1782,83.77881622
1781,83.84721375
1780,83.83820343
1779,83.77922821
1778,83.65531921
1777,83.58746338
1776,83.51343536
1775,83.49364471
1774,83.44805908
1773,83.41470337
1772,83.34484863
1771,83.36048889
1770,83.3032608
1769,83.30883026
1768,83.22369385
1767,83.37563324
1766,83.29550934
1765,83.39216614
1764,83.45166779
1763,83.45614624
1762,83.56604767
1761,83.40216064
1760,83.40792847
1759,83.57600403
1758,83.53728485
1757,83.60818481
1756,83.59329224
1755,83.64776611
1754,83.59532928
1753,83.55519104
1752,83.528862
1751,83.5508728
1750,83.45458221
1749,83.33829498
1748,83.33227539
1747,83.24410248
1746,83.12824249
1745,82.99105835
1744,82.8895874
1743,82.8607254
1742,82.71723175
1741,82.58629608
1740,82.46324921
1739,82.4088974
1738,82.36992645
1737,82.23381805
1736,82.29393005
1735,82.31736755
1734,82.20922089
1733,82.28510284
1732,82.28158569
1731,82.39687347
1730,82.33013153
1729,82.366539
1728,82.37306976
1727,82.37878418
1726,82.350914
1725,82.33390045
1724,82.35299683
1723,82.38524628
1722,82.4493866
1721,82.3925705
1720,82.37608337
1719,82.34851074
1718,82.52532959
1717,82.62108612
1716,82.60041809
1715,82.6960907
1714,82.70735168
1713,82.73136902
1712,82.73478699
1711,82.73757172
1710,82.55669403
1709,82.56608582
1708,82.46176147
1707,82.33507538
1706,82.33221436
1705,82.13063812
1704,81.98848724
1703,81.76651764
1702,81.67446136
1701,81.6124649
1700,81.47229004
1699,81.52301025
1698,81.60060883
1697,81.67328644
1696,81.91963196
1695,81.85377502
1694,82.01596069
1693,81.98455048
1692,81.92710114
1691,81.83049774
1690,81.85983276
1689,81.84998322
1688,82.052742
1687,81.916008
1686,82.27622223
1685,82.48766327
1684,82.659729
1683,82.84169769
1682,83.02292633
1681,83.1539917
1680,83.25222778
1679,83.17888641
1678,83.11399078
1677,83.00647736
1676,82.79039001
1675,82.56778717
1674,82.37212372
1673,82.1187439
1672,82.1020813
1671,81.87151337
1670,81.80764008
1669,81.849823
1668,82.06015778
1667,82.36081696
1666,82.710495
1665,82.98352814
1664,83.37026215
1663,83.73225403
1662,84.21022797
1661,84.39048767
1660,84.63962555
1659,84.86846924
1658,85.04933167
1657,85.20710754
1656,85.40676117
1655,85.50452423
1654,85.65205383
1653,85.63014221
1652,85.68120575
1651,85.72438812
1650,85.69247437
1649,85.64441681
1648,85.76516724
1647,85.84072876
1646,85.99197388
1645,85.89984131
1644,86.07636261
1643,86.15814209
1642,86.2186203
1641,86.34941101
1640,86.39373016
1639,86.36083984
1638,86.30252838
1637,86.38014984
1636,86.39964294
1635,86.37794495
1634,86.45560455
1633,86.50307465
1632,86.52675629
1631,86.57401276
1630,86.58589935
1629,86.57437134
1628,86.69602966
1627,86.69660187
1626,86.58274078
1625,86.68904114
1624,86.69642639
1623,86.67500305
1622,86.54585266
1621,86.58295441
1620,86.70214081
1619,86.66072083
1618,86.56079102
1617,86.5665741
1616,86.65148926
1615,86.70290375
1614,86.64859009
1613,86.71104431
1612,86.65814209
1611,86.66325378
1610,86.76986694
1609,86.73847961
1608,86.76104736
1607,86.79294586
1606,86.67205048
1605,86.68610382
1604,86.70900726
1603,86.72969055
1602,86.76232147
1601,86.70381927
1600,86.77628326
1599,86.74871063
1598,86.74350739
1597,86.63910675
1596,86.79185486
1595,86.74911499
1594,86.72122192
1593,86.67752075
1592,86.83492279
1591,86.75003052
1590,86.80293274
1589,86.74488068
1588,86.88132477
1587,86.81326294
1586,86.76079559
1585,86.79096985
1584,86.88264465
1583,86.75756836
1582,86.68954468
1581,86.83541107
1580,86.77707672
1579,86.81130981
1578,86.89341736
1577,86.80567169
1576,86.83126831
1575,86.76387024
1574,86.89835358
1573,86.90639496
1572,86.88172913
1571,86.97686768
1570,86.93700409
1569,86.94724274
1568,86.90979767
1567,86.87516785
1566,86.87319946
1565,86.93531799
1564,86.79275513
1563,86.84470367
1562,86.83907318
1561,86.7277298
1560,86.87130737
1559,86.8263092
1558,86.8137207
1557,86.78387451
1556,86.72685242
1555,86.65558624
1554,86.59918213
1553,86.60516357
1552,86.4755249
1551,86.42037201
1550,86.40116119
1549,86.31057739
1548,86.34928131
1547,86.2273407
1546,86.19127655
1545,86.13903809
1544,86.1054306
1543,86.06208038
1542,86.16300964
1541,86.08580017
1540,86.06829834
1539,86.05781555
1538,86.09915161
1537,86.13271332
1536,86.02450562
1535,86.0443573
1534,86.05435944
1533,86.0786972
1532,86.13647461
1531,86.19458008
1530,86.21763611
1529,86.27129364
1528,86.26609802
1527,86.45659637
1526,86.40242004
1525,86.35513306
1524,86.37372589
1523,86.46968079
1522,86.46524811
1521,86.46682739
1520,86.51561737
1519,86.60549164
1518,86.53443146
1517,86.50601196
1516,86.61129761
1515,86.72337341
1514,86.66173553
1513,86.62745667
1512,86.52432251
1511,86.70449066
1510,86.61310577
1509,86.69972229
1508,86.51779938
1507,86.63942719
1506,86.65100861
1505,86.62342834
1504,86.55838776
1503,86.44636536
1502,86.48983002
1501,86.51165009
1500,86.57441711
1499,86.5503006
1498,86.34989929
1497,86.38127899
1496,86.33955383
1495,86.4004364
1494,86.43209076
1493,86.28838348
1492,86.13677216
1491,86.27365112
1490,86.16132355
1489,86.25033569
1488,86.12566376
1487,86.10317993
1486,86.0633316
1485,86.14865875
1484,86.02088928
1483,86.05305481
1482,85.94527435
1481,85.91396332
1480,85.85077667
1479,85.83737183
1478,85.77858734
1477,85.84955597
1476,85.7855072
1475,85.59694672
1474,85.70572662
1473,85.60489655
1472,85.71418762
1471,85.64767456
1470,85.47275543
1469,85.50444794
1468,85.44629669
1467,85.47477722
1466,85.3440094
1465,85.34281158
1464,85.36930847
1463,85.31574249
1462,85.28688049
1461,85.24617767
1460,85.26950836
1459,85.1270752
1458,85.17675781
1457,85.05434418
1456,85.1224823
1455,85.01322174
1454,85.00201416
1453,84.93727112
1452,84.939888
1451,84.88078308
1450,84.83817291
1449,84.85771942
1448,84.67505646
1447,84.74117279
1446,84.63684082
1445,84.70277405
1444,84.62168884
1443,84.4778595
1442,84.42584991
1441,84.30078888
1440,84.34618378
1439,84.3370285
1438,84.22662354
1437,84.20788574
1436,84.15656281
1435,84.01717377
1434,84.0521698
1433,83.85480499
1432,83.93901062
1431,83.83534241
1430,83.77272034
1429,83.82868195
1428,83.79662323
1427,83.84524536
1426,83.7623291
1425,83.81828308
1424,83.828125
1423,83.92948151
1422,84.03379822
1421,84.13302612
1420,84.2505722
1419,84.40283966
1418,84.47546387
1417,84.53414917
1416,84.7330246
1415,84.67552185
1414,84.72913361
1413,84.7856369
1412,84.88994598
1411,84.95224762
1410,85.054039
1409,85.02857971
1408,85.1488266
1407,84.99918365
1406,85.18697357
1405,85.19250488
1404,85.22705078
1403,85.23127747
1402,85.28262329
1401,85.28350067
1400,85.23046112
1399,85.30252838
1398,85.35771942
1397,85.33290863
1396,85.28886414
1395,85.3768158
1394,85.40307617
1393,85.45912933
1392,85.46611786
1391,85.54078674
1390,85.45454407
1389,85.53762817
1388,85.60176849
1387,85.57761383
1386,85.69424438
1385,85.67279816
1384,85.82170868
1383,85.76501465
1382,85.81236267
1381,85.855896
1380,85.80672455
1379,85.89231873
1378,85.94020844
1377,86.04695129
1376,86.02690887
1375,86.03625488
1374,86.12582397
1373,86.16397095
1372,86.32297516
1371,86.30102539
1370,86.32740021
1369,86.38285065
1368,86.35266876
1367,86.50701904
1366,86.51277924
1365,86.55744171
1364,86.56790161
1363,86.62525177
1362,86.57500458
1361,86.69903564
1360,86.77154541
1359,86.85700226
1358,86.80049896
1357,86.83631134
1356,86.91843414
1355,87.03531647
1354,87.01821899
1353,86.97835541
1352,87.20014954
1351,87.20433807
1350,87.22159576
1349,87.16552734
1348,87.35162354
1347,87.36363983
1346,87.34137726
1345,87.43456268
1344,87.42710114
1343,87.39632416
1342,87.44803619
1341,87.56011963
1340,87.50494385
1339,87.57614136
1338,87.58340454
1337,87.55595398
1336,87.60639954
1335,87.61677551
1334,87.74707031
1333,87.63600922
1332,87.72418213
1331,87.64560699
1330,87.72319794
1329,87.67881775
1328,87.73062897
1327,87.62696075
1326,87.80708313
1325,87.76834869
1324,87.69244385
1323,87.78759766
1322,87.7607193
1321,87.75042725
1320,87.76766968
1319,87.8710556
1318,87.79349518
1317,87.83825684
1316,87.89118195
1315,87.83220673
1314,87.88378143
1313,87.73188019
1312,87.74141693
1311,87.79971313
1310,87.86574554
1309,87.78865051
1308,87.81671143
1307,87.76609039
1306,87.79217529
1305,87.8110199
1304,87.83423615
1303,87.8013916
1302,87.81797791
1301,87.84648132
1300,87.73373413
1299,87.87418365
1298,87.7983017
1297,87.73262024
1296,87.69316864
1295,87.66412354
1294,87.73789978
1293,87.69936371
1292,87.71347046
1291,87.65600586
1290,87.68158722
1289,87.65084839
1288,87.67430115
1287,87.65680695
1286,87.66521454
1285,87.74820709
1284,87.64138794
1283,87.5977478
1282,87.54840851
1281,87.57894897
1280,87.61711884
1279,87.61995697
1278,87.54434967
1277,87.59303284
1276,87.49121094
1275,87.51332855
1274,87.46060181
1273,87.4546814
1272,87.4547348
1271,87.51195526
1270,87.57388306
1269,87.48892212
1268,87.40440369
1267,87.47399902
1266,87.32246399
1265,87.49198914
1264,87.46586609
1263,87.39785767
1262,87.29494476
1261,87.38820648
1260,87.34683228
1259,87.33096313
1258,87.29262543
1257,87.43017578
1256,87.26701355
1255,87.29620361
1254,87.2882843
1253,87.36170197
1252,87.16321564
1251,87.27857971
1250,87.2436676
1249,87.35214233
1248,87.14356232
1247,87.15170288
1246,87.16770172
1245,87.2308197
1244,87.19405365
1243,87.15180206
1242,87.21322632
1241,87.14341736
1240,87.16677856
1239,87.05643463
1238,87.0102005
1237,87.09339142
1236,87.01289368
1235,86.94184875
1234,86.97145844
1233,86.88451385
1232,86.92411041
1231,87.00832367
1230,86.83178711
1229,86.87862396
1228,86.82644653
1227,86.7645874
1226,86.76222229
1225,86.72915649
1224,86.67131805
1223,86.62991333
1222,86.65730286
1221,86.52628326
1220,86.39206696
1219,86.64497375
1218,86.36248016
1217,86.44863892
1216,86.35539246
1215,86.21437073
1214,86.32672119
1213,86.31800842
1212,86.2688446
1211,86.19326782
1210,86.1182785
1209,86.15685272
1208,86.10546112
1207,85.98542786
1206,85.95269775
1205,85.88899994
1204,85.9082489
1203,85.91392517
1202,85.78268433
1201,85.8310318
1200,85.80709839
1199,85.72837067
1198,85.59555054
1197,85.50601959
1196,85.48126984
1195,85.49507141
1194,85.42481995
1193,85.39359283
1192,85.36235809
1191,85.27523041
1190,85.28348541
1189,85.24559021
1188,85.18484497
1187,85.31089783
1186,85.30328369
1185,85.31356812
1184,85.38991547
1183,85.37091827
1182,85.35887909
1181,85.50140381
1180,85.47154999
1179,85.38728333
1178,85.48577881
1177,85.44937897
1176,85.50047302
1175,85.4842453
1174,85.54538727
1173,85.52632141
1172,85.55814362
1171,85.59528351
1170,85.63707733
1169,85.626297
1168,85.75735474
1167,85.71793365
1166,85.73482513
1165,85.75190735
1164,85.89654541
1163,85.81549835
1162,85.78783417
1161,85.76811218
1160,85.94923401
1159,85.89662933
1158,86.00106049
1157,85.93099976
1156,86.11537933
1155,86.09378815
1154,86.09260559
1153,86.11803436
1152,86.16244507
1151,86.23725128
1150,86.2299118
1149,86.2721405
1148,86.32855225
1147,86.31166077
1146,86.32247162
1145,86.43502045
1144,86.47102356
1143,86.53323364
1142,86.45476532
1141,86.61897278
1140,86.59059143
1139,86.58892822
1138,86.67941284
1137,86.7436676
1136,86.8104248
1135,86.84856415
1134,86.91661835
1133,86.90966034
1132,87.00849152
1131,87.12083435
1130,87.13432312
1129,87.2179184
1128,87.3192749
1127,87.35691071
1126,87.39796448
1125,87.3936615
1124,87.56369019
1123,87.62805176
1122,87.53912354
1121,87.64388275
1120,87.67658234
1119,87.74573517
1118,87.69380188
1117,87.68203735
1116,87.76457977
1115,87.8367157
1114,87.70117188
1113,87.67030334
1112,87.66017914
1111,87.59647369
1110,87.56043243
1109,87.56808472
1108,87.59304047
1107,87.57093811
1106,87.57033539
1105,87.36490631
1104,87.4178009
1103,87.48796844
1102,87.22290039
1101,87.23445892
1100,87.25644684
1099,87.13288116
1098,87.02565002
1097,87.0231781
1096,86.93269348
1095,86.84022522
1094,86.71864319
1093,86.74853516
1092,86.63339233
1091,86.55019379
1090,86.40756226
1089,86.32476044
1088,86.28575897
1087,86.19313049
1086,86.10092163
1085,86.06673431
1084,85.95432281
1083,85.92299652
1082,85.85102844
1081,85.85650635
1080,85.71111298
1079,85.63198853
1078,85.61603546
1077,85.53471375
1076,85.5044632
1075,85.40110779
1074,85.37268066
1073,85.34860992
1072,85.25247192
1071,85.26301575
1070,85.16035461
1069,85.21198273
1068,85.06407928
1067,85.07888794
1066,85.15901947
1065,85.0618515
1064,85.08577728
1063,85.03749847
1062,85.04680634
1061,85.11488342
1060,85.07035828
1059,84.99966431
1058,85.02404785
1057,85.11156464
1056,85.14404297
1055,85.23555756
1054,85.16085052
1053,85.23953247
1052,85.29401398
1051,85.3888092
1050,85.52911377
1049,85.49773407
1048,85.59360504
1047,85.52344513
1046,85.80310822
1045,85.86083984
1044,85.90033722
1043,85.87107086
1042,85.99172974
1041,86.07933807
1040,86.26374054
1039,86.37770081
1038,86.39857483
1037,86.56464386
1036,86.58113861
1035,86.74062347
1034,86.82024384
1033,86.86824036
1032,86.95404816
1031,87.06110382
1030,87.12877655
1029,87.17336273
1028,87.20458984
1027,87.28650665
1026,87.42787933
1025,87.58945465
1024,87.46840668
1023,87.63339233
1022,87.68295288
1021,87.73809052
1020,87.81449127
1019,87.77449036
1018,87.79140472
1017,87.75047302
1016,87.86976624
1015,87.81856537
1014,87.764534
1013,87.81685638
1012,87.81987762
1011,87.81193542
1010,87.81745148
1009,87.77417755
1008,87.79164886
1007,87.7255249
1006,87.71775055
1005,87.67440033
1004,87.56241608
1003,87.53780365
1002,87.47821045
1001,87.39311981
1000,87.38495636
999,87.25453949
998,87.23114014
997,87.16343689
996,87.18047333
995,87.04170227
994,86.98882294
993,86.89743042
992,86.71820831
991,86.78526306
990,86.63039398
989,86.70643616
988,86.61045074
987,86.59328461
986,86.55658722
985,86.40467834
984,86.48060608
983,86.39701843
982,86.28411865
981,86.3176651
980,86.30459595
979,86.30179596
978,86.22412872
977,86.21298981
976,86.29548645
975,86.37454224
974,86.39918518
973,86.36328125
972,86.34294891
971,86.42584991
970,86.48765564
969,86.534729
968,86.59538269
967,86.62604523
966,86.77000427
965,86.79904938
964,86.80007172
963,86.97790527
962,86.98377991
961,87.00643158
960,87.12565613
959,87.24633789
958,87.27327728
957,87.33360291
956,87.41139984
955,87.58222198
954,87.6259079
953,87.62630463
952,87.79245758
951,87.77719116
950,87.84655762
949,87.77815247
948,87.96330261
947,87.99305725
946,87.98802948
945,88.09962463
944,88.06681061
943,88.13597107
942,88.01083374
941,88.03276825
940,88.0166626
939,88.04489899
938,88.00764465
937,87.87227631
936,87.85949707
935,87.8585434
934,87.91605377
933,87.60295868
932,87.57165527
931,87.51596069
930,87.41015625
929,87.32782745
928,87.22486115
927,87.10281372
926,86.9642334
925,86.93576813
924,86.76867676
923,86.58215332
922,86.62716675
921,86.39089203
920,86.29571533
919,86.13188171
918,86.09809875
917,86.00726318
916,86.020401
915,85.7230072
914,85.79743195
913,85.83274841
912,85.66320801
911,85.66159821
910,85.62734222
909,85.57801056
908,85.51152039
907,85.63159943
906,85.58953094
905,85.55921173
904,85.66667175
903,85.72399902
902,85.76895905
901,85.8578949
900,85.91808319
899,85.96091461
898,85.94590759
897,86.08740997
896,86.18888092
895,86.3327179
894,86.51568604
893,86.68608856
892,86.75622559
891,86.78427124
890,86.9997406
889,87.06385803
888,87.23522186
887,87.3585968
886,87.38233948
885,87.5918808
884,87.65161896
883,87.74645996
882,87.83708954
881,87.88527679
880,87.96492004
879,88.10675049
878,88.11177063
877,88.12088013
876,88.07654572
875,88.11431885
874,88.14795685
873,87.96714783
872,88.06049347
871,87.96147156
870,87.87984467
869,87.90084839
868,87.7722168
867,87.62420654
866,87.57115936
865,87.42456818
864,87.40828705
863,87.33343506
862,87.16066742
861,87.07841492
860,86.86512756
859,86.7562027
858,86.61335754
857,86.50631714
856,86.44020844
855,86.45407867
854,86.16053772
853,86.12930298
852,86.08128357
851,86.0546875
850,86.07772827
849,85.95884705
848,85.95776367
847,85.92221069
846,86.03955841
845,85.9498291
844,85.92675018
843,86.0214386
842,86.11479187
841,86.25611877
840,86.38903046
839,86.41708374
838,86.51356506
837,86.70018005
836,86.78727722
835,86.91646576
834,87.16962433
833,87.29496002
832,87.41734314
831,87.70720673
830,87.85093689
829,87.92066956
828,88.03541565
827,88.28460693
826,88.3811264
825,88.45420074
824,88.60404205
823,88.67527771
822,88.76766968
821,88.907341
820,88.9099884
819,88.90516663
818,88.93201447
817,88.91308594
816,88.86820221
815,88.7437439
814,88.76417542
813,88.71650696
812,88.65257263
811,88.54006195
810,88.47531128
809,88.42646027
808,88.19678497
807,88.14213562
806,87.99806213
805,87.86248016
804,87.69013977
803,87.54666138
802,87.4882431
801,87.36639404
800,87.30677032
799,87.48260498
798,87.47836304
797,87.47917938
796,87.41011047
795,87.35816193
794,87.45513916
793,87.4859848
792,87.41104126
791,87.53610229
790,87.58194733
789,87.71494293
788,87.8219223
787,87.86762238
786,88.05573273
785,88.21016693
784,88.35784149
783,88.49259949
782,88.66835022
781,88.83745575
780,89.0316391
779,89.14963531
778,89.20374298
777,89.39424896
776,89.51599121
775,89.67610931
774,89.64372253
773,89.6809845
772,89.7488327
771,89.81201935
770,89.82915497
769,89.73059082
768,89.70393372
767,89.64026642
766,89.57602692
765,89.40911102
764,89.26811981
763,89.15679169
762,88.97518921
761,88.86405945
760,88.68550873
759,88.53282166
758,88.41269684
757,88.23432159
756,88.14807892
755,87.9221344
754,87.7793045
753,87.80737305
752,87.70179749
751,87.64022064
750,87.5428772
749,87.6112442
748,87.6091156
747,87.66614532
746,87.70022583
745,87.75679016
744,87.88156891
743,88.01361084
742,88.10413361
741,88.25984955
740,88.41592407
739,88.56297302
738,88.73968506
737,88.89853668
736,88.99679565
735,89.13899994
734,89.23271179
733,89.34624481
732,89.45253754
731,89.56607819
730,89.54019165
729,89.59305573
728,89.59738922
727,89.54593658
726,89.55338287
725,89.44965363
724,89.46638489
723,89.37215424
722,89.28779602
721,89.2634964
720,89.12400818
719,89.08466339
718,89.06945801
717,88.93386841
716,88.93254089
715,88.90823364
714,88.89677429
713,88.92639923
712,88.98118591
711,89.05292511
710,89.12913513
709,89.22861481
708,89.27065277
707,89.40497589
706,89.52986145
705,89.65814972
704,89.69390106
703,89.82354736
702,89.89481354
701,89.97129822
700,89.9808197
699,89.96450043
698,89.957901
697,89.85794067
696,89.74762726
695,89.59590912
694,89.44770813
693,89.21635437
692,89.00608826
691,88.73114014
690,88.42079163
689,88.17158508
688,87.8761673
687,87.65444946
686,87.3686676
685,87.14350128
684,86.99056244
683,86.85469055
682,86.73958588
681,86.70777893
680,86.68031311
679,86.7636261
678,86.91181183
677,87.09169006
676,87.30845642
675,87.59010315
674,87.87820435
673,88.20330811
672,88.54885864
671,88.93811035
670,89.23284912
669,89.54878998
668,89.84893036
667,90.04502106
666,90.20651245
665,90.2671051
664,90.2954483
663,90.18309021
662,90.0652771
661,89.8286972
660,89.51598358
659,89.16027069
658,88.76016998
657,88.32761383
656,87.88861084
655,87.49388885
654,87.0931778
653,86.72467804
652,86.42974854
651,86.24919891
650,86.05263519
649,86.0291214
648,86.02987671
647,86.15708923
646,86.37676239
645,86.64749908
644,87.00226593
643,87.37232971
642,87.79387665
641,88.26939392
640,88.75545502
639,89.16222382
638,89.55718994
637,89.8742218
636,90.09495544
635,90.28877258
634,90.37814331
633,90.37094116
632,90.28460693
631,90.15898132
630,89.9668808
629,89.70001984
628,89.48685455
627,89.23186493
626,89.04592133
625,88.88954163
624,88.80570221
623,88.76343536
622,88.81761169
621,88.94368744
620,89.13204956
619,89.33082581
618,89.58082581
617,89.81661987
616,90.03725433
615,90.22338104
614,90.31890869
613,90.33561707
612,90.25843048
611,90.07455444
610,89.75643158
609,89.42204285
608,88.9990921
607,88.58872986
606,88.1625824
605,87.76799774
604,87.43455505
603,87.20893097
602,87.0625
601,87.07246399
600,87.20809937
599,87.44062042
598,87.75867462
597,88.1166153
596,88.50370789
595,88.93665314
594,89.26892853
593,89.51303101
592,89.64387512
591,89.68348694
590,89.57796478
589,89.38629913
588,89.09060669
587,88.75875854
586,88.4355545
585,88.09803772
584,87.89981842
583,87.75239563
582,87.71344757
581,87.77326202
580,87.89246368
579,88.04723358
578,88.20452118
577,88.41238403
576,88.58339691
575,88.72071838
574,88.87030792
573,88.97612
572,89.08375549
571,89.22773743
570,89.28269196
569,89.34783173
568,89.29860687
567,89.05264282
566,88.67266846
565,88.15635681
564,87.59452057
563,87.1413269
562,86.80308533
561,86.68387604
560,86.59192657
559,86.40410614
558,85.89762115
557,85.06964874
556,84.62696838
555,85.38234711
554,85.18663025
553,76.6770401
552,55.13157654
551,29.1983223
550,11.99719429
549,4.351989746
548,1.598102927
547,0.6319369078
546,0.2695554495
545,0.1227149069
544,0.0586519353
543,0.0294484552
542,0.0154297072
541,0.0083470335
540,0.0046553239
539,0.0026591264
538,0.0015507925
537,0.0009444571
536,0.0005983232
535,0.0003833357
534,0.0002530247
533,0.0001737048
532,0.0001364228
531,0.0001006645
530,8.94E-05
529,7.23E-05
528,6.66E-05
527,5.92E-05
526,5.92E-05
525,4.94E-05
524,4.59E-05
523,4.15E-05
522,4.84E-05
521,3.82E-05
520,4.02E-05
519,4.21E-05
518,3.90E-05
517,3.67E-05
516,3.83E-05
515,2.92E-05
514,3.31E-05
513,3.61E-05
512,3.05E-05
511,3.01E-05
510,2.75E-05
509,3.34E-05
508,2.59E-05
507,2.43E-05
506,2.88E-05
505,1.72E-05
504,3.25E-05
503,2.63E-05
502,2.08E-05
501,2.40E-05
500,1.60E-05
499,2.47E-05
498,2.70E-05
497,1.64E-05
496,2.52E-05
495,1.62E-05
494,2.73E-05
493,2.52E-05
492,2.20E-05
491,2.29E-05
490,2.64E-05
489,2.25E-05
488,2.29E-05
487,2.02E-05
486,1.91E-05
485,2.44E-05
484,2.77E-05
483,2.14E-05
482,2.01E-05
481,2.43E-05
480,2.42E-05
479,2.54E-05
478,2.34E-05
477,2.82E-05
476,3.11E-05
475,3.17E-05
474,2.07E-05
473,2.11E-05
472,2.94E-05
471,2.52E-05
470,2.89E-05
469,2.67E-05
468,2.19E-05
467,3.04E-05
466,2.44E-05
465,2.60E-05
464,3.36E-05
463,2.01E-05
462,2.70E-05
461,2.72E-05
460,2.57E-05
459,3.13E-05
458,2.15E-05
457,2.48E-05
456,3.30E-05
455,2.36E-05
454,2.74E-05
453,2.66E-05
452,2.73E-05
451,2.41E-05
450,3.24E-05
449,2.55E-05
448,2.59E-05
447,3.07E-05
446,3.90E-05
445,2.66E-05
444,3.15E-05
443,2.98E-05
442,1.16E-05
441,2.39E-05
440,2.50E-05
439,3.10E-05
438,2.92E-05
437,3.34E-05
436,2.11E-05
435,3.14E-05
434,3.49E-05
433,3.46E-05
432,3.27E-05
431,2.12E-05
430,2.94E-05
429,3.05E-05
428,2.59E-05
427,2.67E-05
426,2.76E-05
425,3.05E-05
424,1.82E-05
423,2.42E-05
422,3.66E-05
421,3.41E-05
420,2.58E-05
419,2.83E-05
418,2.94E-05
417,2.82E-05
416,3.16E-05
415,3.17E-05
414,3.86E-05
413,2.61E-05
412,3.43E-05
411,3.50E-05
410,3.39E-05
409,2.67E-05
408,3.31E-05
407,3.93E-05
406,3.22E-05
405,2.03E-05
404,4.44E-05
403,3.76E-05
402,3.26E-05
401,3.94E-05
400,2.96E-05
399,4.06E-05
398,3.62E-05
397,3.53E-05
396,4.17E-05
395,3.92E-05
394,3.28E-05
393,4.22E-05
392,3.85E-05
391,5.74E-05
390,5.46E-05
389,7.45E-05
388,0.0001000189
387,0.0001045494
386,9.40E-05
385,0.0001014005
384,0.0001207048
383,0.0001601896
382,0.0001643592
381,0.0001288783
380,0.0001388619
379,0.0001273007
378,0.0001605542
377,0.0001882269
376,0.0001816322
375,0.0001675405
374,0.0001440414
373,0.0001312815
372,0.0001441392
371,0.0001537762
370,0.0001465628
369,0.0001361419
368,0.0001214824
367,0.0001014733
366,9.46E-05
365,9.74E-05
364,8.82E-05
363,8.12E-05
362,8.37E-05
361,6.54E-05
360,5.10E-05
359,6.87E-05
358,4.62E-05
357,5.42E-05
356,5.11E-05
355,3.55E-05
354,5.21E-05
353,4.22E-05
352,4.50E-05
351,4.32E-05
350,5.00E-05
349,-0.0001015869
348,1.12E-05
347,3.71E-05
346,2.82E-05
345,1.71E-05
344,1.99E-05
343,2.99E-05
342,3.80E-05
341,2.56E-05
340,3.75E-05
339,3.42E-05
338,3.24E-05
337,3.05E-05
336,3.57E-05
335,3.69E-05
334,3.36E-05
333,3.71E-05
332,4.49E-05
331,4.81E-05
330,7.17E-05
329,4.36E-05
328,8.18E-05
327,6.21E-05
326,7.83E-05
325,6.98E-05
324,0.0001053885
323,9.04E-05
322,0.0001126757
321,0.0001140658
320,0.0001484104
319,0.0001405817
318,0.0001498198
317,0.0001676633
316,0.000174044
315,0.000181423
314,0.0002436518
313,0.0002304483
312,0.0002610501
311,0.0002821051
310,0.000312362
309,0.0003546748
308,0.0003675289
307,0.0003926182
306,0.0004095076
305,0.0004646664
304,0.0005102044
303,0.0005327454
302,0.000584972
301,0.0006213968
300,0.0006631039
299,0.0007094949
298,0.0007290055
297,0.0007830895
296,0.0008421111
295,0.0008558266
294,0.0009326167
293,0.0009301555
292,0.0010032984
291,0.0010307078
290,0.00106097
289,0.0011192865
288,0.0011112506
287,0.0011576021
286,0.0011610172
285,0.0012002145
284,0.0012075759
283,0.0012791194
282,0.0012486835
281,0.0013249847
280,0.0013059849
279,0.0013448221
278,0.0013294392
277,0.0013467208
276,0.0013767796
275,0.001365635
274,0.0014076129
273,0.0014095432
272,0.0014178326
271,0.0014349689
270,0.0014603805
269,0.0014716981
268,0.0014443854
267,0.0014723839
266,0.0014905224
265,0.0015002493
264,0.0015026488
263,0.0015479373
262,0.0014955903
261,0.0015188647
260,0.0015320708
259,0.0015497586
258,0.0015610416
257,0.0015314423
256,0.0015739419
255,0.0015707964
254,0.0015647227
253,0.0015678077
252,0.0015618425
251,0.0015676752
250,0.0015680335
249,0.0015665172
248,0.0015924962
247,0.0015965523
246,0.0015902679
245,0.0015930677
244,0.0016114635
243,0.0016295031
242,0.00162324
241,0.0016213534
240,0.0016509728
239,0.0016672206
238,0.001674257
237,0.0017127116
236,0.0017169662
235,0.0017477009
234,0.0017628683
233,0.0017863249
232,0.0017934297
231,0.001818373
230,0.001812526
229,0.0018184774
228,0.0018283065
227,0.0018741477
226,0.0018755347
225,0.0018717265
224,0.0018855787
223,0.0019357688
222,0.0019020737
221,0.0019329981
220,0.0019617574
219,0.001976307
218,0.00200667
217,0.0020202794
216,0.002036388
215,0.0020848277
214,0.0021038083
213,0.0021611042
212,0.0022151095
211,0.0022273317
210,0.0023441317
209,0.0023469226
208,0.0024211884
207,0.0024751949
206,0.0025314989
205,0.0026227925
204,0.0026693696
203,0.0027383384
202,0.002828192
201,0.0028881151
200,0.0029768404
